2019-11-26 03:01:56.589 [Info] > XCGLogger writing log to: file:///var/mobile/Containers/Data/Application/C638E282-A7DA-493D-9FE4-F2D7B0E1E6C7/Library/Caches/Logs/browser.20191126T030156+0100.log
2019-11-26 03:01:56.589 [Info] [RollingFileLogger.swift:46] newLogWithDate(_:) > Created file destination for logger with root: browser and timestamp: 2019-11-26 02:01:56 +0000
2019-11-26 03:01:56.747 [Info] [AppDelegate.swift:142] startApplication(_:withLaunchOptions:) > startApplication end
2019-11-26 03:01:56.798 [Error] [LeanplumIntegration.swift:144] start() > LeanplumIntegration - Could not be started
2019-11-26 03:01:58.051 [Debug] [TabManagerStore.swift:106] preserveTabs(_:selectedTab:) > PreserveTabs write ok: true
2019-11-26 03:02:03.192 [Debug] [MetadataParserHelper.swift:39] tab(_:didChangeURL:) > Page contains no metadata!
2019-11-26 03:02:05.874 [Debug] [TabManagerStore.swift:106] preserveTabs(_:selectedTab:) > PreserveTabs write ok: true
2019-11-26 03:02:37.119 [Debug] [TabManagerStore.swift:106] preserveTabs(_:selectedTab:) > PreserveTabs write ok: true
2019-11-26 03:02:50.132 [Debug] [TabManagerStore.swift:106] preserveTabs(_:selectedTab:) > PreserveTabs write ok: true
2019-11-26 03:02:55.109 [Debug] [TabManagerStore.swift:106] preserveTabs(_:selectedTab:) > PreserveTabs write ok: true
2019-11-26 03:02:55.219 [Debug] [TabManagerStore.swift:106] preserveTabs(_:selectedTab:) > PreserveTabs write ok: true
2019-11-26 03:02:56.482 [Debug] [MetadataParserHelper.swift:39] tab(_:didChangeURL:) > Page contains no metadata!
2019-11-26 03:02:58.041 [Debug] [TabManagerStore.swift:106] preserveTabs(_:selectedTab:) > PreserveTabs write ok: true
2019-11-26 03:03:09.500 [Debug] [MetadataParserHelper.swift:39] tab(_:didChangeURL:) > Page contains no metadata!
2019-11-26 03:03:09.889 [Debug] [TabManagerStore.swift:106] preserveTabs(_:selectedTab:) > PreserveTabs write ok: true
2019-11-26 03:03:13.077 [Debug] [MetadataParserHelper.swift:39] tab(_:didChangeURL:) > Page contains no metadata!
2019-11-26 03:03:13.517 [Debug] [TabManagerStore.swift:106] preserveTabs(_:selectedTab:) > PreserveTabs write ok: true
2019-11-26 03:03:20.464 [Debug] [TabManagerStore.swift:106] preserveTabs(_:selectedTab:) > PreserveTabs write ok: true
2019-11-26 03:03:39.768 [Debug] [TabManagerStore.swift:106] preserveTabs(_:selectedTab:) > PreserveTabs write ok: true
2019-11-26 03:03:48.048 [Debug] [MetadataParserHelper.swift:39] tab(_:didChangeURL:) > Page contains no metadata!
2019-11-26 03:03:48.442 [Debug] [TabManagerStore.swift:106] preserveTabs(_:selectedTab:) > PreserveTabs write ok: true
2019-11-26 03:03:52.773 [Debug] [TabManagerStore.swift:106] preserveTabs(_:selectedTab:) > PreserveTabs write ok: true
2019-11-26 03:04:14.925 [Debug] [TabManagerStore.swift:106] preserveTabs(_:selectedTab:) > PreserveTabs write ok: true
2019-11-26 03:04:20.161 [Debug] [TabManagerStore.swift:106] preserveTabs(_:selectedTab:) > PreserveTabs write ok: true
2019-11-26 03:04:52.040 [Debug] [MetadataParserHelper.swift:39] tab(_:didChangeURL:) > Page contains no metadata!
2019-11-26 03:04:53.293 [Debug] [TabManagerStore.swift:106] preserveTabs(_:selectedTab:) > PreserveTabs write ok: true
2019-11-26 03:05:02.441 [Debug] [TabManagerStore.swift:106] preserveTabs(_:selectedTab:) > PreserveTabs write ok: true
